Unit 2: Rtutorial
…
Rows: 603 Columns: 30
── Column specification ────────────────────────────────────────────────────────
Delimiter: ","
chr  (6): course_id, subject, semester, section, Gradebook_Item, Gender
dbl (23): student_id, total_points_possible, total_points_earned, percentage...
lgl  (1): Grade_Category

ℹ Use `spec()` to retrieve the full column specification for this data.
ℹ Specify the column types or set `show_col_types = FALSE` to quiet this message.

You loaded the data, now what should we do?

sci_classes

# A tibble: 603 × 30
   student_id course_id     total_points_possible total_points_earned
        <dbl> <chr>                         <dbl>               <dbl>
 1      43146 FrScA-S216-02                  3280                2220
 2      44638 OcnA-S116-01                   3531                2672
 3      47448 FrScA-S216-01                  2870                1897
 4      47979 OcnA-S216-01                   4562                3090
 5      48797 PhysA-S116-01                  2207                1910
 6      51943 FrScA-S216-03                  4208                3596
 7      52326 AnPhA-S216-01                  4325                2255
 8      52446 PhysA-S116-01                  2086                1719
 9      53447 FrScA-S116-01                  4655                3149
10      53475 FrScA-S116-02                  1710                1402
# ℹ 593 more rows
# ℹ 26 more variables: percentage_earned <dbl>, subject <chr>, semester <chr>,
#   section <chr>, Gradebook_Item <chr>, Grade_Category <lgl>,
#   FinalGradeCEMS <dbl>, Points_Possible <dbl>, Points_Earned <dbl>,
#   Gender <chr>, q1 <dbl>, q2 <dbl>, q3 <dbl>, q4 <dbl>, q5 <dbl>, q6 <dbl>,
#   q7 <dbl>, q8 <dbl>, q9 <dbl>, q10 <dbl>, TimeSpent <dbl>,
#   TimeSpent_hours <dbl>, TimeSpent_std <dbl>, int <dbl>, pc <dbl>, uv <dbl>
…
semester

FinalGradeCEMS

After selecting these columns, assign that to a new object with a name of “student_grade”.

student_grade <-sci_classes |>
  select (student_id,
          subject,
          semester,
          FinalGradeCEMS)

student_grade

# A tibble: 603 × 4
   student_id subject semester FinalGradeCEMS
        <dbl> <chr>   <chr>             <dbl>
 1      43146 FrScA   S216               93.5
 2      44638 OcnA    S116               81.7
 3      47448 FrScA   S216               88.5
 4      47979 OcnA    S216               81.9
 5      48797 PhysA   S116               84  
 6      51943 FrScA   S216               NA  
 7      52326 AnPhA   S216               83.6
 8      52446 PhysA   S116               97.8
 9      53447 FrScA   S116               96.1
10      53475 FrScA   S116               NA  
# ℹ 593 more rows
…
